…
    ## # A tibble: 21 x 5
    ##              X1         X2 species   diff      ratio
    ##           <dbl>      <dbl> <chr>    <dbl>      <dbl>
    ##  1 0.337        0.0180     PP      0.319       18.7 
    ##  2 0.265        0.482      DM      0.217        1.82
    ##  3 0.145        0.00000326 PB      0.145    44505.  
    ##  4 0.0000000254 0.115      DS      0.115  4526115.  
    ##  5 0.00982      0.0498     NA.     0.0400       5.07
    ##  6 0.00875      0.0407     OL      0.0319       4.65
    ##  7 0.00901      0.0363     RM      0.0273       4.03
    ##  8 0.00796      0.0304     PF      0.0225       3.83
    ##  9 0.107        0.128      DO      0.0209       1.20
    ## 10 0.0180       0.0282     PE      0.0102       1.57
    ## # ... with 11 more rows
…
